(kicad_sch (version 20200618) (host eeschema "5.99.0-unknown-7340c97~102~ubuntu20.04.1")

  (page 3 6)

  (paper "A4")

  (lib_symbols
    (symbol "mini_mipi:ECP5-BGA256" (pin_names (offset 0.762))
      (property "Reference" "IC" (id 0) (at -2.54 1.27 0)
        (effects (font (size 1.27 1.27)) (justify left))
      )
      (property "Value" "ECP5-BGA256" (id 1) (at 10.16 1.27 0)
        (effects (font (size 1.27 1.27)) (justify left))
      )
      (property "Footprint" "mini-mipi:BGA256C80P16X16_1400X1400X170" (id 2) (at -81.28 87.63 0)
        (effects (font (size 1.27 1.27)) (justify left) hide)
      )
      (property "Datasheet" "" (id 3) (at -92.71 111.76 0)
        (effects (font (size 1.27 1.27)) (justify left) hide)
      )
      (property "Description" "FPGA - Field Programmable Gate Array ECP5; 12k LUTs; 1.1V" (id 4) (at -92.71 109.22 0)
        (effects (font (size 1.27 1.27)) (justify left) hide)
      )
      (property "Height" "1.7" (id 5) (at -92.71 118.11 0)
        (effects (font (size 1.27 1.27)) (justify left) hide)
      )
      (property "Manufacturer_Name" "Lattice" (id 6) (at -91.44 133.35 0)
        (effects (font (size 1.27 1.27)) (justify left) hide)
      )
      (property "Manufacturer_Part_Number" "LFE5U-12F-6BG256C" (id 7) (at -91.44 130.81 0)
        (effects (font (size 1.27 1.27)) (justify left) hide)
      )
      (property "Mouser Part Number" "842-LFE5U12F6BG256C" (id 8) (at -74.93 97.79 0)
        (effects (font (size 1.27 1.27)) (justify left) hide)
      )
      (property "Mouser Price/Stock" "https://www.mouser.com/Search/Refine.aspx?Keyword=842-LFE5U12F6BG256C" (id 9) (at -83.82 93.98 0)
        (effects (font (size 1.27 1.27)) (justify left) hide)
      )
      (property "ki_locked" "" (id 10) (at 0 0 0)
        (effects (font (size 1.27 1.27)))
      )
      (symbol "ECP5-BGA256_8_0"
        (text "(Config)" (at 13.97 -97.79 0)
          (effects (font (size 2.9972 2.9972)))
        )
        (text "Bank 8" (at 13.97 -92.71 0)
          (effects (font (size 2.9972 2.9972)))
        )
      )
      (symbol "ECP5-BGA256_1_1"
        (text "FPGA Supplies" (at 19.05 -76.2 0)
          (effects (font (size 2.9972 2.9972)))
        )
        (pin power_in line (at 38.1 -2.54 180) (length 5.08)
          (name "GND_1" (effects (font (size 1.27 1.27))))
          (number "A1" (effects (font (size 1.27 1.27))))
        )
        (pin power_in line (at 38.1 -5.08 180) (length 5.08)
          (name "GND_2" (effects (font (size 1.27 1.27))))
          (number "A16" (effects (font (size 1.27 1.27))))
        )
        (pin power_in line (at 38.1 -10.16 180) (length 5.08)
          (name "GND_4" (effects (font (size 1.27 1.27))))
          (number "D15" (effects (font (size 1.27 1.27))))
        )
        (pin power_in line (at 38.1 -7.62 180) (length 5.08)
          (name "GND_3" (effects (font (size 1.27 1.27))))
          (number "D2" (effects (font (size 1.27 1.27))))
        )
        (pin power_in line (at 38.1 -12.7 180) (length 5.08)
          (name "GND_5" (effects (font (size 1.27 1.27))))
          (number "F8" (effects (font (size 1.27 1.27))))
        )
        (pin power_in line (at 38.1 -15.24 180) (length 5.08)
          (name "GND_6" (effects (font (size 1.27 1.27))))
          (number "F9" (effects (font (size 1.27 1.27))))
        )
        (pin power_in line (at 38.1 -20.32 180) (length 5.08)
          (name "GND_8" (effects (font (size 1.27 1.27))))
          (number "G10" (effects (font (size 1.27 1.27))))
        )
        (pin power_in line (at 0 -66.04 0) (length 5.08)
          (name "VCCAUX_1" (effects (font (size 1.27 1.27))))
          (number "G11" (effects (font (size 1.27 1.27))))
        )
        (pin power_in line (at 0 -2.54 0) (length 5.08)
          (name "VCC_1" (effects (font (size 1.27 1.27))))
          (number "G6" (effects (font (size 1.27 1.27))))
        )
        (pin power_in line (at 0 -5.08 0) (length 5.08)
          (name "VCC_2" (effects (font (size 1.27 1.27))))
          (number "G7" (effects (font (size 1.27 1.27))))
        )
        (pin power_in line (at 38.1 -17.78 180) (length 5.08)
          (name "GND_7" (effects (font (size 1.27 1.27))))
          (number "G8" (effects (font (size 1.27 1.27))))
        )
        (pin power_in line (at 0 -7.62 0) (length 5.08)
          (name "VCC_3" (effects (font (size 1.27 1.27))))
          (number "G9" (effects (font (size 1.27 1.27))))
        )
        (pin power_in line (at 38.1 -22.86 180) (length 5.08)
          (name "GND_9" (effects (font (size 1.27 1.27))))
          (number "H1" (effects (font (size 1.27 1.27))))
        )
        (pin power_in line (at 38.1 -30.48 180) (length 5.08)
          (name "GND_12" (effects (font (size 1.27 1.27))))
          (number "H10" (effects (font (size 1.27 1.27))))
        )
        (pin power_in line (at 38.1 -33.02 180) (length 5.08)
          (name "GND_13" (effects (font (size 1.27 1.27))))
          (number "H16" (effects (font (size 1.27 1.27))))
        )
        (pin power_in line (at 38.1 -25.4 180) (length 5.08)
          (name "GND_10" (effects (font (size 1.27 1.27))))
          (number "H8" (effects (font (size 1.27 1.27))))
        )
        (pin power_in line (at 38.1 -27.94 180) (length 5.08)
          (name "GND_11" (effects (font (size 1.27 1.27))))
          (number "H9" (effects (font (size 1.27 1.27))))
        )
        (pin power_in line (at 38.1 -40.64 180) (length 5.08)
          (name "GND_16" (effects (font (size 1.27 1.27))))
          (number "J10" (effects (font (size 1.27 1.27))))
        )
        (pin power_in line (at 38.1 -35.56 180) (length 5.08)
          (name "GND_14" (effects (font (size 1.27 1.27))))
          (number "J8" (effects (font (size 1.27 1.27))))
        )
        (pin power_in line (at 38.1 -38.1 180) (length 5.08)
          (name "GND_15" (effects (font (size 1.27 1.27))))
          (number "J9" (effects (font (size 1.27 1.27))))
        )
        (pin power_in line (at 38.1 -53.34 180) (length 5.08)
          (name "GND_21" (effects (font (size 1.27 1.27))))
          (number "K10" (effects (font (size 1.27 1.27))))
        )
        (pin power_in line (at 38.1 -43.18 180) (length 5.08)
          (name "GND_17" (effects (font (size 1.27 1.27))))
          (number "K6" (effects (font (size 1.27 1.27))))
        )
        (pin power_in line (at 38.1 -45.72 180) (length 5.08)
          (name "GND_18" (effects (font (size 1.27 1.27))))
          (number "K7" (effects (font (size 1.27 1.27))))
        )
        (pin power_in line (at 38.1 -48.26 180) (length 5.08)
          (name "GND_19" (effects (font (size 1.27 1.27))))
          (number "K8" (effects (font (size 1.27 1.27))))
        )
        (pin power_in line (at 38.1 -50.8 180) (length 5.08)
          (name "GND_20" (effects (font (size 1.27 1.27))))
          (number "K9" (effects (font (size 1.27 1.27))))
        )
        (pin power_in line (at 0 -15.24 0) (length 5.08)
          (name "VCC_6" (effects (font (size 1.27 1.27))))
          (number "L10" (effects (font (size 1.27 1.27))))
        )
        (pin power_in line (at 0 -68.58 0) (length 5.08)
          (name "VCCAUX_2" (effects (font (size 1.27 1.27))))
          (number "L7" (effects (font (size 1.27 1.27))))
        )
        (pin power_in line (at 0 -10.16 0) (length 5.08)
          (name "VCC_4" (effects (font (size 1.27 1.27))))
          (number "L8" (effects (font (size 1.27 1.27))))
        )
        (pin power_in line (at 0 -12.7 0) (length 5.08)
          (name "VCC_5" (effects (font (size 1.27 1.27))))
          (number "L9" (effects (font (size 1.27 1.27))))
        )
        (pin power_in line (at 38.1 -58.42 180) (length 5.08)
          (name "GND_23" (effects (font (size 1.27 1.27))))
          (number "N15" (effects (font (size 1.27 1.27))))
        )
        (pin power_in line (at 38.1 -55.88 180) (length 5.08)
          (name "GND_22" (effects (font (size 1.27 1.27))))
          (number "N2" (effects (font (size 1.27 1.27))))
        )
        (pin power_in line (at 38.1 -60.96 180) (length 5.08)
          (name "GND_24" (effects (font (size 1.27 1.27))))
          (number "T1" (effects (font (size 1.27 1.27))))
        )
        (pin power_in line (at 38.1 -66.04 180) (length 5.08)
          (name "GND_26" (effects (font (size 1.27 1.27))))
          (number "T12" (effects (font (size 1.27 1.27))))
        )
        (pin bidirectional line (at 38.1 -68.58 180) (length 5.08)
          (name "GND_27" (effects (font (size 1.27 1.27))))
          (number "T16" (effects (font (size 1.27 1.27))))
        )
        (pin power_in line (at 38.1 -63.5 180) (length 5.08)
          (name "GND_25" (effects (font (size 1.27 1.27))))
          (number "T5" (effects (font (size 1.27 1.27))))
        )
      )
      (symbol "ECP5-BGA256_2_1"
        (text "Bank 0" (at 10.16 -78.74 0)
          (effects (font (size 2.9972 2.9972)))
        )
        (rectangle (start 0 0) (end 19.05 -74.93)
          (stroke (width 0.3048)) (fill (type background))
        )
        (pin bidirectional line (at 24.13 -11.43 180) (length 5.08)
          (name "PT4A" (effects (font (size 1.27 1.27))))
          (number "A2" (effects (font (size 1.27 1.27))))
        )
        (pin bidirectional line (at 24.13 -16.51 180) (length 5.08)
          (name "PT6A" (effects (font (size 1.27 1.27))))
          (number "A3" (effects (font (size 1.27 1.27))))
        )
        (pin bidirectional line (at 24.13 -19.05 180) (length 5.08)
          (name "PT6B" (effects (font (size 1.27 1.27))))
          (number "A4" (effects (font (size 1.27 1.27))))
        )
        (pin bidirectional line (at 24.13 -43.18 180) (length 5.08)
          (name "PT18A" (effects (font (size 1.27 1.27))))
          (number "A5" (effects (font (size 1.27 1.27))))
        )
        (pin bidirectional line (at 24.13 -45.72 180) (length 5.08)
          (name "PT18B" (effects (font (size 1.27 1.27))))
          (number "A6" (effects (font (size 1.27 1.27))))
        )
        (pin bidirectional line (at 24.13 -68.58 180) (length 5.08)
          (name "PT29A" (effects (font (size 1.27 1.27))))
          (number "A7" (effects (font (size 1.27 1.27))))
        )
        (pin bidirectional line (at 24.13 -71.12 180) (length 5.08)
          (name "PT29B" (effects (font (size 1.27 1.27))))
          (number "A8" (effects (font (size 1.27 1.27))))
        )
        (pin bidirectional line (at 24.13 -13.97 180) (length 5.08)
          (name "PT4B" (effects (font (size 1.27 1.27))))
          (number "B3" (effects (font (size 1.27 1.27))))
        )
        (pin bidirectional line (at 24.13 -29.21 180) (length 5.08)
          (name "PT11B" (effects (font (size 1.27 1.27))))
          (number "B4" (effects (font (size 1.27 1.27))))
        )
        (pin bidirectional line (at 24.13 -39.37 180) (length 5.08)
          (name "PT15B" (effects (font (size 1.27 1.27))))
          (number "B5" (effects (font (size 1.27 1.27))))
        )
        (pin bidirectional line (at 24.13 -55.88 180) (length 5.08)
          (name "PT22B" (effects (font (size 1.27 1.27))))
          (number "B6" (effects (font (size 1.27 1.27))))
        )
        (pin bidirectional line (at 24.13 -66.04 180) (length 5.08)
          (name "PT27B" (effects (font (size 1.27 1.27))))
          (number "B7" (effects (font (size 1.27 1.27))))
        )
        (pin bidirectional line (at 24.13 -26.67 180) (length 5.08)
          (name "PT11A" (effects (font (size 1.27 1.27))))
          (number "C4" (effects (font (size 1.27 1.27))))
        )
        (pin bidirectional line (at 24.13 -36.83 180) (length 5.08)
          (name "PT15A" (effects (font (size 1.27 1.27))))
          (number "C5" (effects (font (size 1.27 1.27))))
        )
        (pin bidirectional line (at 24.13 -53.34 180) (length 5.08)
          (name "PT22A" (effects (font (size 1.27 1.27))))
          (number "C6" (effects (font (size 1.27 1.27))))
        )
        (pin bidirectional line (at 24.13 -63.5 180) (length 5.08)
          (name "PT27A" (effects (font (size 1.27 1.27))))
          (number "C7" (effects (font (size 1.27 1.27))))
        )
        (pin bidirectional line (at 24.13 -24.13 180) (length 5.08)
          (name "PT9B" (effects (font (size 1.27 1.27))))
          (number "D4" (effects (font (size 1.27 1.27))))
        )
        (pin bidirectional line (at 24.13 -34.29 180) (length 5.08)
          (name "PT13B" (effects (font (size 1.27 1.27))))
          (number "D5" (effects (font (size 1.27 1.27))))
        )
        (pin bidirectional line (at 24.13 -50.8 180) (length 5.08)
          (name "PT20B" (effects (font (size 1.27 1.27))))
          (number "D6" (effects (font (size 1.27 1.27))))
        )
        (pin bidirectional line (at 24.13 -60.96 180) (length 5.08)
          (name "PT24B" (effects (font (size 1.27 1.27))))
          (number "D7" (effects (font (size 1.27 1.27))))
        )
        (pin bidirectional line (at 24.13 -21.59 180) (length 5.08)
          (name "PT9A" (effects (font (size 1.27 1.27))))
          (number "E4" (effects (font (size 1.27 1.27))))
        )
        (pin bidirectional line (at 24.13 -31.75 180) (length 5.08)
          (name "PT13A" (effects (font (size 1.27 1.27))))
          (number "E5" (effects (font (size 1.27 1.27))))
        )
        (pin bidirectional line (at 24.13 -48.26 180) (length 5.08)
          (name "PT20A" (effects (font (size 1.27 1.27))))
          (number "E6" (effects (font (size 1.27 1.27))))
        )
        (pin bidirectional line (at 24.13 -58.42 180) (length 5.08)
          (name "PT24A" (effects (font (size 1.27 1.27))))
          (number "E7" (effects (font (size 1.27 1.27))))
        )
        (pin power_in line (at 7.62 5.08 270) (length 5.08)
          (name "VCCIO0_1" (effects (font (size 1.27 1.27))))
          (number "F6" (effects (font (size 1.27 1.27))))
        )
        (pin power_in line (at 5.08 5.08 270) (length 5.08)
          (name "VCCIO0_2" (effects (font (size 1.27 1.27))))
          (number "F7" (effects (font (size 1.27 1.27))))
        )
      )
      (symbol "ECP5-BGA256_3_1"
        (text "Bank 1" (at 8.89 -96.52 0)
          (effects (font (size 2.9972 2.9972)))
        )
        (pin bidirectional line (at 26.67 -34.29 180) (length 5.08)
          (name "PT42B" (effects (font (size 1.27 1.27))))
          (number "A10" (effects (font (size 1.27 1.27))))
        )
        (pin bidirectional line (at 26.67 -57.15 180) (length 5.08)
          (name "PT53A" (effects (font (size 1.27 1.27))))
          (number "A11" (effects (font (size 1.27 1.27))))
        )
        (pin bidirectional line (at 26.67 -59.69 180) (length 5.08)
          (name "PT53B" (effects (font (size 1.27 1.27))))
          (number "A12" (effects (font (size 1.27 1.27))))
        )
        (pin bidirectional line (at 26.67 -82.55 180) (length 5.08)
          (name "PT65A" (effects (font (size 1.27 1.27))))
          (number "A13" (effects (font (size 1.27 1.27))))
        )
        (pin bidirectional line (at 26.67 -85.09 180) (length 5.08)
          (name "PT65B" (effects (font (size 1.27 1.27))))
          (number "A14" (effects (font (size 1.27 1.27))))
        )
        (pin bidirectional line (at 26.67 -90.17 180) (length 5.08)
          (name "PT67B" (effects (font (size 1.27 1.27))))
          (number "A15" (effects (font (size 1.27 1.27))))
        )
        (pin bidirectional line (at 26.67 -31.75 180) (length 5.08)
          (name "PT42A" (effects (font (size 1.27 1.27))))
          (number "A9" (effects (font (size 1.27 1.27))))
        )
        (pin bidirectional line (at 26.67 -36.83 180) (length 5.08)
          (name "PT44A" (effects (font (size 1.27 1.27))))
          (number "B10" (effects (font (size 1.27 1.27))))
        )
        (pin bidirectional line (at 26.67 -46.99 180) (length 5.08)
          (name "PT49A" (effects (font (size 1.27 1.27))))
          (number "B11" (effects (font (size 1.27 1.27))))
        )
        (pin bidirectional line (at 26.67 -62.23 180) (length 5.08)
          (name "PT56A" (effects (font (size 1.27 1.27))))
          (number "B12" (effects (font (size 1.27 1.27))))
        )
        (pin bidirectional line (at 26.67 -72.39 180) (length 5.08)
          (name "PT60A" (effects (font (size 1.27 1.27))))
          (number "B13" (effects (font (size 1.27 1.27))))
        )
        (pin bidirectional line (at 26.67 -87.63 180) (length 5.08)
          (name "PT67A" (effects (font (size 1.27 1.27))))
          (number "B14" (effects (font (size 1.27 1.27))))
        )
        (pin bidirectional line (at 26.67 -19.05 180) (length 5.08)
          (name "PT35B" (effects (font (size 1.27 1.27))))
          (number "B8" (effects (font (size 1.27 1.27))))
        )
        (pin bidirectional line (at 26.67 -21.59 180) (length 5.08)
          (name "PT38A" (effects (font (size 1.27 1.27))))
          (number "B9" (effects (font (size 1.27 1.27))))
        )
        (pin bidirectional line (at 26.67 -39.37 180) (length 5.08)
          (name "PT44B" (effects (font (size 1.27 1.27))))
          (number "C10" (effects (font (size 1.27 1.27))))
        )
        (pin bidirectional line (at 26.67 -49.53 180) (length 5.08)
          (name "PT49B" (effects (font (size 1.27 1.27))))
          (number "C11" (effects (font (size 1.27 1.27))))
        )
        (pin bidirectional line (at 26.67 -64.77 180) (length 5.08)
          (name "PT56B" (effects (font (size 1.27 1.27))))
          (number "C12" (effects (font (size 1.27 1.27))))
        )
        (pin bidirectional line (at 26.67 -74.93 180) (length 5.08)
          (name "PT60B" (effects (font (size 1.27 1.27))))
          (number "C13" (effects (font (size 1.27 1.27))))
        )
        (pin bidirectional line (at 26.67 -16.51 180) (length 5.08)
          (name "PT35A" (effects (font (size 1.27 1.27))))
          (number "C8" (effects (font (size 1.27 1.27))))
        )
        (pin bidirectional line (at 26.67 -24.13 180) (length 5.08)
          (name "PT38B" (effects (font (size 1.27 1.27))))
          (number "C9" (effects (font (size 1.27 1.27))))
        )
        (pin bidirectional line (at 26.67 -41.91 180) (length 5.08)
          (name "PT47A" (effects (font (size 1.27 1.27))))
          (number "D10" (effects (font (size 1.27 1.27))))
        )
        (pin bidirectional line (at 26.67 -52.07 180) (length 5.08)
          (name "PT51A" (effects (font (size 1.27 1.27))))
          (number "D11" (effects (font (size 1.27 1.27))))
        )
        (pin bidirectional line (at 26.67 -67.31 180) (length 5.08)
          (name "PT58A" (effects (font (size 1.27 1.27))))
          (number "D12" (effects (font (size 1.27 1.27))))
        )
        (pin bidirectional line (at 26.67 -77.47 180) (length 5.08)
          (name "PT62A" (effects (font (size 1.27 1.27))))
          (number "D13" (effects (font (size 1.27 1.27))))
        )
        (pin bidirectional line (at 26.67 -13.97 180) (length 5.08)
          (name "PT33B" (effects (font (size 1.27 1.27))))
          (number "D8" (effects (font (size 1.27 1.27))))
        )
        (pin bidirectional line (at 26.67 -26.67 180) (length 5.08)
          (name "PT40A" (effects (font (size 1.27 1.27))))
          (number "D9" (effects (font (size 1.27 1.27))))
        )
        (pin bidirectional line (at 26.67 -44.45 180) (length 5.08)
          (name "PT47B" (effects (font (size 1.27 1.27))))
          (number "E10" (effects (font (size 1.27 1.27))))
        )
        (pin bidirectional line (at 26.67 -54.61 180) (length 5.08)
          (name "PT51B" (effects (font (size 1.27 1.27))))
          (number "E11" (effects (font (size 1.27 1.27))))
        )
        (pin bidirectional line (at 26.67 -69.85 180) (length 5.08)
          (name "PT58B" (effects (font (size 1.27 1.27))))
          (number "E12" (effects (font (size 1.27 1.27))))
        )
        (pin bidirectional line (at 26.67 -80.01 180) (length 5.08)
          (name "PT62B" (effects (font (size 1.27 1.27))))
          (number "E13" (effects (font (size 1.27 1.27))))
        )
        (pin bidirectional line (at 26.67 -11.43 180) (length 5.08)
          (name "PT33A" (effects (font (size 1.27 1.27))))
          (number "E8" (effects (font (size 1.27 1.27))))
        )
        (pin bidirectional line (at 26.67 -29.21 180) (length 5.08)
          (name "PT40B" (effects (font (size 1.27 1.27))))
          (number "E9" (effects (font (size 1.27 1.27))))
        )
        (pin power_in line (at 6.35 5.08 270) (length 5.08)
          (name "VCCIO1_1" (effects (font (size 1.27 1.27))))
          (number "F10" (effects (font (size 1.27 1.27))))
        )
        (pin power_in line (at 3.81 5.08 270) (length 5.08)
          (name "VCCIO1_2" (effects (font (size 1.27 1.27))))
          (number "F11" (effects (font (size 1.27 1.27))))
        )
      )
      (symbol "ECP5-BGA256_4_1"
        (text "Bank 2" (at 10.16 -97.79 0)
          (effects (font (size 2.9972 2.9972)))
        )
        (rectangle (start 0 0) (end 19.05 -93.98)
          (stroke (width 0.3048)) (fill (type background))
        )
        (pin bidirectional line (at 24.13 -13.97 180) (length 5.08)
          (name "PR2B" (effects (font (size 1.27 1.27))))
          (number "B15" (effects (font (size 1.27 1.27))))
        )
        (pin bidirectional line (at 24.13 -11.43 180) (length 5.08)
          (name "PR2A" (effects (font (size 1.27 1.27))))
          (number "B16" (effects (font (size 1.27 1.27))))
        )
        (pin bidirectional line (at 24.13 -16.51 180) (length 5.08)
          (name "PR2C" (effects (font (size 1.27 1.27))))
          (number "C14" (effects (font (size 1.27 1.27))))
        )
        (pin bidirectional line (at 24.13 -24.13 180) (length 5.08)
          (name "PR5B" (effects (font (size 1.27 1.27))))
          (number "C15" (effects (font (size 1.27 1.27))))
        )
        (pin bidirectional line (at 24.13 -21.59 180) (length 5.08)
          (name "PR5A" (effects (font (size 1.27 1.27))))
          (number "C16" (effects (font (size 1.27 1.27))))
        )
        (pin bidirectional line (at 24.13 -19.05 180) (length 5.08)
          (name "PR2D" (effects (font (size 1.27 1.27))))
          (number "D14" (effects (font (size 1.27 1.27))))
        )
        (pin bidirectional line (at 24.13 -31.75 180) (length 5.08)
          (name "PR8A" (effects (font (size 1.27 1.27))))
          (number "D16" (effects (font (size 1.27 1.27))))
        )
        (pin bidirectional line (at 24.13 -26.67 180) (length 5.08)
          (name "PR5C" (effects (font (size 1.27 1.27))))
          (number "E14" (effects (font (size 1.27 1.27))))
        )
        (pin bidirectional line (at 24.13 -34.29 180) (length 5.08)
          (name "PR8B" (effects (font (size 1.27 1.27))))
          (number "E15" (effects (font (size 1.27 1.27))))
        )
        (pin bidirectional line (at 24.13 -49.53 180) (length 5.08)
          (name "PR11D" (effects (font (size 1.27 1.27))))
          (number "E16" (effects (font (size 1.27 1.27))))
        )
        (pin bidirectional line (at 24.13 -39.37 180) (length 5.08)
          (name "PR8D" (effects (font (size 1.27 1.27))))
          (number "F12" (effects (font (size 1.27 1.27))))
        )
        (pin bidirectional line (at 24.13 -36.83 180) (length 5.08)
          (name "PR8C" (effects (font (size 1.27 1.27))))
          (number "F13" (effects (font (size 1.27 1.27))))
        )
        (pin bidirectional line (at 24.13 -29.21 180) (length 5.08)
          (name "PR5D" (effects (font (size 1.27 1.27))))
          (number "F14" (effects (font (size 1.27 1.27))))
        )
        (pin bidirectional line (at 24.13 -46.99 180) (length 5.08)
          (name "PR11C" (effects (font (size 1.27 1.27))))
          (number "F15" (effects (font (size 1.27 1.27))))
        )
        (pin bidirectional line (at 24.13 -52.07 180) (length 5.08)
          (name "PR14A" (effects (font (size 1.27 1.27))))
          (number "F16" (effects (font (size 1.27 1.27))))
        )
        (pin bidirectional line (at 24.13 -41.91 180) (length 5.08)
          (name "PR11A" (effects (font (size 1.27 1.27))))
          (number "G12" (effects (font (size 1.27 1.27))))
        )
        (pin bidirectional line (at 24.13 -44.45 180) (length 5.08)
          (name "PR11B" (effects (font (size 1.27 1.27))))
          (number "G13" (effects (font (size 1.27 1.27))))
        )
        (pin bidirectional line (at 24.13 -57.15 180) (length 5.08)
          (name "PR14C" (effects (font (size 1.27 1.27))))
          (number "G14" (effects (font (size 1.27 1.27))))
        )
        (pin bidirectional line (at 24.13 -54.61 180) (length 5.08)
          (name "PR14B" (effects (font (size 1.27 1.27))))
          (number "G15" (effects (font (size 1.27 1.27))))
        )
        (pin bidirectional line (at 24.13 -72.39 180) (length 5.08)
          (name "PR20A" (effects (font (size 1.27 1.27))))
          (number "G16" (effects (font (size 1.27 1.27))))
        )
        (pin power_in line (at 3.81 5.08 270) (length 5.08)
          (name "VCCIO2_1" (effects (font (size 1.27 1.27))))
          (number "H11" (effects (font (size 1.27 1.27))))
        )
        (pin bidirectional line (at 24.13 -62.23 180) (length 5.08)
          (name "PR17A" (effects (font (size 1.27 1.27))))
          (number "H12" (effects (font (size 1.27 1.27))))
        )
        (pin bidirectional line (at 24.13 -64.77 180) (length 5.08)
          (name "PR17B" (effects (font (size 1.27 1.27))))
          (number "H13" (effects (font (size 1.27 1.27))))
        )
        (pin bidirectional line (at 24.13 -59.69 180) (length 5.08)
          (name "PR14D" (effects (font (size 1.27 1.27))))
          (number "H14" (effects (font (size 1.27 1.27))))
        )
        (pin bidirectional line (at 24.13 -74.93 180) (length 5.08)
          (name "PR20B" (effects (font (size 1.27 1.27))))
          (number "H15" (effects (font (size 1.27 1.27))))
        )
        (pin power_in line (at 6.35 5.08 270) (length 5.08)
          (name "VCCIO2_2" (effects (font (size 1.27 1.27))))
          (number "J11" (effects (font (size 1.27 1.27))))
        )
        (pin bidirectional line (at 24.13 -69.85 180) (length 5.08)
          (name "PR17D" (effects (font (size 1.27 1.27))))
          (number "J12" (effects (font (size 1.27 1.27))))
        )
        (pin bidirectional line (at 24.13 -67.31 180) (length 5.08)
          (name "PR17C" (effects (font (size 1.27 1.27))))
          (number "J13" (effects (font (size 1.27 1.27))))
        )
        (pin bidirectional line (at 24.13 -77.47 180) (length 5.08)
          (name "PR20C" (effects (font (size 1.27 1.27))))
          (number "J14" (effects (font (size 1.27 1.27))))
        )
        (pin bidirectional line (at 24.13 -85.09 180) (length 5.08)
          (name "PR23B" (effects (font (size 1.27 1.27))))
          (number "J15" (effects (font (size 1.27 1.27))))
        )
        (pin bidirectional line (at 24.13 -82.55 180) (length 5.08)
          (name "PR23A" (effects (font (size 1.27 1.27))))
          (number "J16" (effects (font (size 1.27 1.27))))
        )
        (pin bidirectional line (at 24.13 -80.01 180) (length 5.08)
          (name "PR20D" (effects (font (size 1.27 1.27))))
          (number "K14" (effects (font (size 1.27 1.27))))
        )
        (pin bidirectional line (at 24.13 -90.17 180) (length 5.08)
          (name "PR23D" (effects (font (size 1.27 1.27))))
          (number "K15" (effects (font (size 1.27 1.27))))
        )
        (pin bidirectional line (at 24.13 -87.63 180) (length 5.08)
          (name "PR23C" (effects (font (size 1.27 1.27))))
          (number "K16" (effects (font (size 1.27 1.27))))
        )
      )
      (symbol "ECP5-BGA256_5_1"
        (text "Bank 3" (at 15.24 -96.52 0)
          (effects (font (size 2.9972 2.9972)))
        )
        (pin power_in line (at 3.81 5.08 270) (length 5.08)
          (name "VCCIO3_1" (effects (font (size 1.27 1.27))))
          (number "K11" (effects (font (size 1.27 1.27))))
        )
        (pin bidirectional line (at 25.4 -22.86 180) (length 5.08)
          (name "PR29B" (effects (font (size 1.27 1.27))))
          (number "K12" (effects (font (size 1.27 1.27))))
        )
        (pin bidirectional line (at 25.4 -20.32 180) (length 5.08)
          (name "PR29A" (effects (font (size 1.27 1.27))))
          (number "K13" (effects (font (size 1.27 1.27))))
        )
        (pin power_in line (at 6.35 5.08 270) (length 5.08)
          (name "VCCIO3_2" (effects (font (size 1.27 1.27))))
          (number "L11" (effects (font (size 1.27 1.27))))
        )
        (pin bidirectional line (at 25.4 -27.94 180) (length 5.08)
          (name "PR29D" (effects (font (size 1.27 1.27))))
          (number "L12" (effects (font (size 1.27 1.27))))
        )
        (pin bidirectional line (at 25.4 -25.4 180) (length 5.08)
          (name "PR29C" (effects (font (size 1.27 1.27))))
          (number "L13" (effects (font (size 1.27 1.27))))
        )
        (pin bidirectional line (at 25.4 -35.56 180) (length 5.08)
          (name "PR32C" (effects (font (size 1.27 1.27))))
          (number "L14" (effects (font (size 1.27 1.27))))
        )
        (pin bidirectional line (at 25.4 -12.7 180) (length 5.08)
          (name "PR26B" (effects (font (size 1.27 1.27))))
          (number "L15" (effects (font (size 1.27 1.27))))
        )
        (pin bidirectional line (at 25.4 -10.16 180) (length 5.08)
          (name "PR26A" (effects (font (size 1.27 1.27))))
          (number "L16" (effects (font (size 1.27 1.27))))
        )
        (pin bidirectional line (at 25.4 -81.28 180) (length 5.08)
          (name "PR47A" (effects (font (size 1.27 1.27))))
          (number "M11" (effects (font (size 1.27 1.27))))
        )
        (pin bidirectional line (at 25.4 -76.2 180) (length 5.08)
          (name "PR44C" (effects (font (size 1.27 1.27))))
          (number "M12" (effects (font (size 1.27 1.27))))
        )
        (pin bidirectional line (at 25.4 -45.72 180) (length 5.08)
          (name "PR35C" (effects (font (size 1.27 1.27))))
          (number "M13" (effects (font (size 1.27 1.27))))
        )
        (pin bidirectional line (at 25.4 -38.1 180) (length 5.08)
          (name "PR32D" (effects (font (size 1.27 1.27))))
          (number "M14" (effects (font (size 1.27 1.27))))
        )
        (pin bidirectional line (at 25.4 -17.78 180) (length 5.08)
          (name "PR26D" (effects (font (size 1.27 1.27))))
          (number "M15" (effects (font (size 1.27 1.27))))
        )
        (pin bidirectional line (at 25.4 -15.24 180) (length 5.08)
          (name "PR26C" (effects (font (size 1.27 1.27))))
          (number "M16" (effects (font (size 1.27 1.27))))
        )
        (pin bidirectional line (at 25.4 -83.82 180) (length 5.08)
          (name "PR47B" (effects (font (size 1.27 1.27))))
          (number "N11" (effects (font (size 1.27 1.27))))
        )
        (pin bidirectional line (at 25.4 -78.74 180) (length 5.08)
          (name "PR44D" (effects (font (size 1.27 1.27))))
          (number "N12" (effects (font (size 1.27 1.27))))
        )
        (pin bidirectional line (at 25.4 -50.8 180) (length 5.08)
          (name "PR38A" (effects (font (size 1.27 1.27))))
          (number "N13" (effects (font (size 1.27 1.27))))
        )
        (pin bidirectional line (at 25.4 -48.26 180) (length 5.08)
          (name "PR35D" (effects (font (size 1.27 1.27))))
          (number "N14" (effects (font (size 1.27 1.27))))
        )
        (pin bidirectional line (at 25.4 -30.48 180) (length 5.08)
          (name "PR32A" (effects (font (size 1.27 1.27))))
          (number "N16" (effects (font (size 1.27 1.27))))
        )
        (pin bidirectional line (at 25.4 -86.36 180) (length 5.08)
          (name "PR47C" (effects (font (size 1.27 1.27))))
          (number "P11" (effects (font (size 1.27 1.27))))
        )
        (pin bidirectional line (at 25.4 -88.9 180) (length 5.08)
          (name "PR47D" (effects (font (size 1.27 1.27))))
          (number "P12" (effects (font (size 1.27 1.27))))
        )
        (pin bidirectional line (at 25.4 -60.96 180) (length 5.08)
          (name "PR41A" (effects (font (size 1.27 1.27))))
          (number "P13" (effects (font (size 1.27 1.27))))
        )
        (pin bidirectional line (at 25.4 -53.34 180) (length 5.08)
          (name "PR38B" (effects (font (size 1.27 1.27))))
          (number "P14" (effects (font (size 1.27 1.27))))
        )
        (pin bidirectional line (at 25.4 -33.02 180) (length 5.08)
          (name "PR32B" (effects (font (size 1.27 1.27))))
          (number "P15" (effects (font (size 1.27 1.27))))
        )
        (pin bidirectional line (at 25.4 -40.64 180) (length 5.08)
          (name "PR35A" (effects (font (size 1.27 1.27))))
          (number "P16" (effects (font (size 1.27 1.27))))
        )
        (pin bidirectional line (at 25.4 -71.12 180) (length 5.08)
          (name "PR44A" (effects (font (size 1.27 1.27))))
          (number "R12" (effects (font (size 1.27 1.27))))
        )
        (pin bidirectional line (at 25.4 -66.04 180) (length 5.08)
          (name "PR41C" (effects (font (size 1.27 1.27))))
          (number "R13" (effects (font (size 1.27 1.27))))
        )
        (pin bidirectional line (at 25.4 -63.5 180) (length 5.08)
          (name "PR41B" (effects (font (size 1.27 1.27))))
          (number "R14" (effects (font (size 1.27 1.27))))
        )
        (pin bidirectional line (at 25.4 -55.88 180) (length 5.08)
          (name "PR38C" (effects (font (size 1.27 1.27))))
          (number "R15" (effects (font (size 1.27 1.27))))
        )
        (pin bidirectional line (at 25.4 -43.18 180) (length 5.08)
          (name "PR35B" (effects (font (size 1.27 1.27))))
          (number "R16" (effects (font (size 1.27 1.27))))
        )
        (pin bidirectional line (at 25.4 -73.66 180) (length 5.08)
          (name "PR44B" (effects (font (size 1.27 1.27))))
          (number "T13" (effects (font (size 1.27 1.27))))
        )
        (pin bidirectional line (at 25.4 -68.58 180) (length 5.08)
          (name "PR41D" (effects (font (size 1.27 1.27))))
          (number "T14" (effects (font (size 1.27 1.27))))
        )
        (pin bidirectional line (at 25.4 -58.42 180) (length 5.08)
          (name "PR38D" (effects (font (size 1.27 1.27))))
          (number "T15" (effects (font (size 1.27 1.27))))
        )
      )
      (symbol "ECP5-BGA256_6_1"
        (text "Bank 6" (at 11.43 -110.49 0)
          (effects (font (size 2.9972 2.9972)))
        )
        (rectangle (start 0 0) (end 19.05 -106.68)
          (stroke (width 0.3048)) (fill (type background))
        )
        (pin power_in line (at 3.81 5.08 270) (length 5.08)
          (name "VCCIO6_1" (effects (font (size 1.27 1.27))))
          (number "J6" (effects (font (size 1.27 1.27))))
        )
        (pin power_in line (at 6.35 5.08 270) (length 5.08)
          (name "VCCIO6_2" (effects (font (size 1.27 1.27))))
          (number "J7" (effects (font (size 1.27 1.27))))
        )
        (pin bidirectional line (at 24.13 -25.4 180) (length 5.08)
          (name "PL29A" (effects (font (size 1.27 1.27))))
          (number "K4" (effects (font (size 1.27 1.27))))
        )
        (pin bidirectional line (at 24.13 -27.94 180) (length 5.08)
          (name "PL29B" (effects (font (size 1.27 1.27))))
          (number "K5" (effects (font (size 1.27 1.27))))
        )
        (pin bidirectional line (at 24.13 -13.97 180) (length 5.08)
          (name "PL26A" (effects (font (size 1.27 1.27))))
          (number "L1" (effects (font (size 1.27 1.27))))
        )
        (pin bidirectional line (at 24.13 -16.51 180) (length 5.08)
          (name "PL26B" (effects (font (size 1.27 1.27))))
          (number "L2" (effects (font (size 1.27 1.27))))
        )
        (pin bidirectional line (at 24.13 -41.91 180) (length 5.08)
          (name "PL32C" (effects (font (size 1.27 1.27))))
          (number "L3" (effects (font (size 1.27 1.27))))
        )
        (pin bidirectional line (at 24.13 -30.48 180) (length 5.08)
          (name "PL29C" (effects (font (size 1.27 1.27))))
          (number "L4" (effects (font (size 1.27 1.27))))
        )
        (pin bidirectional line (at 24.13 -33.02 180) (length 5.08)
          (name "PL29D" (effects (font (size 1.27 1.27))))
          (number "L5" (effects (font (size 1.27 1.27))))
        )
        (pin bidirectional line (at 24.13 -19.05 180) (length 5.08)
          (name "PL26C" (effects (font (size 1.27 1.27))))
          (number "M1" (effects (font (size 1.27 1.27))))
        )
        (pin bidirectional line (at 24.13 -21.59 180) (length 5.08)
          (name "PL26D" (effects (font (size 1.27 1.27))))
          (number "M2" (effects (font (size 1.27 1.27))))
        )
        (pin bidirectional line (at 24.13 -44.45 180) (length 5.08)
          (name "PL32D" (effects (font (size 1.27 1.27))))
          (number "M3" (effects (font (size 1.27 1.27))))
        )
        (pin bidirectional line (at 24.13 -53.34 180) (length 5.08)
          (name "PL35C" (effects (font (size 1.27 1.27))))
          (number "M4" (effects (font (size 1.27 1.27))))
        )
        (pin bidirectional line (at 24.13 -78.74 180) (length 5.08)
          (name "PL44C" (effects (font (size 1.27 1.27))))
          (number "M5" (effects (font (size 1.27 1.27))))
        )
        (pin bidirectional line (at 24.13 -96.52 180) (length 5.08)
          (name "PL47A" (effects (font (size 1.27 1.27))))
          (number "M6" (effects (font (size 1.27 1.27))))
        )
        (pin bidirectional line (at 24.13 -36.83 180) (length 5.08)
          (name "PL32A" (effects (font (size 1.27 1.27))))
          (number "N1" (effects (font (size 1.27 1.27))))
        )
        (pin bidirectional line (at 24.13 -55.88 180) (length 5.08)
          (name "PL35D" (effects (font (size 1.27 1.27))))
          (number "N3" (effects (font (size 1.27 1.27))))
        )
        (pin bidirectional line (at 24.13 -60.96 180) (length 5.08)
          (name "PL38A" (effects (font (size 1.27 1.27))))
          (number "N4" (effects (font (size 1.27 1.27))))
        )
        (pin bidirectional line (at 24.13 -81.28 180) (length 5.08)
          (name "PL44D" (effects (font (size 1.27 1.27))))
          (number "N5" (effects (font (size 1.27 1.27))))
        )
        (pin bidirectional line (at 24.13 -99.06 180) (length 5.08)
          (name "PL47B" (effects (font (size 1.27 1.27))))
          (number "N6" (effects (font (size 1.27 1.27))))
        )
        (pin bidirectional line (at 24.13 -48.26 180) (length 5.08)
          (name "PL35A" (effects (font (size 1.27 1.27))))
          (number "P1" (effects (font (size 1.27 1.27))))
        )
        (pin bidirectional line (at 24.13 -39.37 180) (length 5.08)
          (name "PL32B" (effects (font (size 1.27 1.27))))
          (number "P2" (effects (font (size 1.27 1.27))))
        )
        (pin bidirectional line (at 24.13 -63.5 180) (length 5.08)
          (name "PL38B" (effects (font (size 1.27 1.27))))
          (number "P3" (effects (font (size 1.27 1.27))))
        )
        (pin bidirectional line (at 24.13 -85.09 180) (length 5.08)
          (name "PL41A" (effects (font (size 1.27 1.27))))
          (number "P4" (effects (font (size 1.27 1.27))))
        )
        (pin bidirectional line (at 24.13 -101.6 180) (length 5.08)
          (name "PL47D" (effects (font (size 1.27 1.27))))
          (number "P5" (effects (font (size 1.27 1.27))))
        )
        (pin bidirectional line (at 24.13 -104.14 180) (length 5.08)
          (name "PL47C" (effects (font (size 1.27 1.27))))
          (number "P6" (effects (font (size 1.27 1.27))))
        )
        (pin bidirectional line (at 24.13 -50.8 180) (length 5.08)
          (name "PL35B" (effects (font (size 1.27 1.27))))
          (number "R1" (effects (font (size 1.27 1.27))))
        )
        (pin bidirectional line (at 24.13 -66.04 180) (length 5.08)
          (name "PL38C" (effects (font (size 1.27 1.27))))
          (number "R2" (effects (font (size 1.27 1.27))))
        )
        (pin bidirectional line (at 24.13 -87.63 180) (length 5.08)
          (name "PL41B" (effects (font (size 1.27 1.27))))
          (number "R3" (effects (font (size 1.27 1.27))))
        )
        (pin bidirectional line (at 24.13 -90.17 180) (length 5.08)
          (name "PL41C" (effects (font (size 1.27 1.27))))
          (number "R4" (effects (font (size 1.27 1.27))))
        )
        (pin bidirectional line (at 24.13 -73.66 180) (length 5.08)
          (name "PL44A" (effects (font (size 1.27 1.27))))
          (number "R5" (effects (font (size 1.27 1.27))))
        )
        (pin bidirectional line (at 24.13 -68.58 180) (length 5.08)
          (name "PL38D" (effects (font (size 1.27 1.27))))
          (number "T2" (effects (font (size 1.27 1.27))))
        )
        (pin bidirectional line (at 24.13 -92.71 180) (length 5.08)
          (name "PL41D" (effects (font (size 1.27 1.27))))
          (number "T3" (effects (font (size 1.27 1.27))))
        )
        (pin bidirectional line (at 24.13 -76.2 180) (length 5.08)
          (name "PL44B" (effects (font (size 1.27 1.27))))
          (number "T4" (effects (font (size 1.27 1.27))))
        )
      )
      (symbol "ECP5-BGA256_7_1"
        (text "Bank 7" (at 12.7 -113.03 0)
          (effects (font (size 2.9972 2.9972)))
        )
        (rectangle (start 0 0) (end 20.32 -109.22)
          (stroke (width 0.3048)) (fill (type background))
        )
        (pin bidirectional line (at 25.4 -10.16 180) (length 5.08)
          (name "PL2A" (effects (font (size 1.27 1.27))))
          (number "B1" (effects (font (size 1.27 1.27))))
        )
        (pin bidirectional line (at 25.4 -12.7 180) (length 5.08)
          (name "PL2B" (effects (font (size 1.27 1.27))))
          (number "B2" (effects (font (size 1.27 1.27))))
        )
        (pin bidirectional line (at 25.4 -22.86 180) (length 5.08)
          (name "PL5A" (effects (font (size 1.27 1.27))))
          (number "C1" (effects (font (size 1.27 1.27))))
        )
        (pin bidirectional line (at 25.4 -25.4 180) (length 5.08)
          (name "PL5B" (effects (font (size 1.27 1.27))))
          (number "C2" (effects (font (size 1.27 1.27))))
        )
        (pin bidirectional line (at 25.4 -15.24 180) (length 5.08)
          (name "PL2C" (effects (font (size 1.27 1.27))))
          (number "C3" (effects (font (size 1.27 1.27))))
        )
        (pin bidirectional line (at 25.4 -35.56 180) (length 5.08)
          (name "PL8A" (effects (font (size 1.27 1.27))))
          (number "D1" (effects (font (size 1.27 1.27))))
        )
        (pin bidirectional line (at 25.4 -17.78 180) (length 5.08)
          (name "PL2D" (effects (font (size 1.27 1.27))))
          (number "D3" (effects (font (size 1.27 1.27))))
        )
        (pin bidirectional line (at 25.4 -54.61 180) (length 5.08)
          (name "PL11D" (effects (font (size 1.27 1.27))))
          (number "E1" (effects (font (size 1.27 1.27))))
        )
        (pin bidirectional line (at 25.4 -38.1 180) (length 5.08)
          (name "PL8B" (effects (font (size 1.27 1.27))))
          (number "E2" (effects (font (size 1.27 1.27))))
        )
        (pin bidirectional line (at 25.4 -27.94 180) (length 5.08)
          (name "PL5C" (effects (font (size 1.27 1.27))))
          (number "E3" (effects (font (size 1.27 1.27))))
        )
        (pin bidirectional line (at 25.4 -59.69 180) (length 5.08)
          (name "PL14A" (effects (font (size 1.27 1.27))))
          (number "F1" (effects (font (size 1.27 1.27))))
        )
        (pin bidirectional line (at 25.4 -52.07 180) (length 5.08)
          (name "PL11C" (effects (font (size 1.27 1.27))))
          (number "F2" (effects (font (size 1.27 1.27))))
        )
        (pin bidirectional line (at 25.4 -30.48 180) (length 5.08)
          (name "PL5D" (effects (font (size 1.27 1.27))))
          (number "F3" (effects (font (size 1.27 1.27))))
        )
        (pin bidirectional line (at 25.4 -40.64 180) (length 5.08)
          (name "PL8C" (effects (font (size 1.27 1.27))))
          (number "F4" (effects (font (size 1.27 1.27))))
        )
        (pin bidirectional line (at 25.4 -43.18 180) (length 5.08)
          (name "PL8D" (effects (font (size 1.27 1.27))))
          (number "F5" (effects (font (size 1.27 1.27))))
        )
        (pin bidirectional line (at 25.4 -82.55 180) (length 5.08)
          (name "PL20A" (effects (font (size 1.27 1.27))))
          (number "G1" (effects (font (size 1.27 1.27))))
        )
        (pin bidirectional line (at 25.4 -62.23 180) (length 5.08)
          (name "PL14B" (effects (font (size 1.27 1.27))))
          (number "G2" (effects (font (size 1.27 1.27))))
        )
        (pin bidirectional line (at 25.4 -64.77 180) (length 5.08)
          (name "PL14C" (effects (font (size 1.27 1.27))))
          (number "G3" (effects (font (size 1.27 1.27))))
        )
        (pin bidirectional line (at 25.4 -49.53 180) (length 5.08)
          (name "PL11B" (effects (font (size 1.27 1.27))))
          (number "G4" (effects (font (size 1.27 1.27))))
        )
        (pin bidirectional line (at 25.4 -46.99 180) (length 5.08)
          (name "PL11A" (effects (font (size 1.27 1.27))))
          (number "G5" (effects (font (size 1.27 1.27))))
        )
        (pin bidirectional line (at 25.4 -85.09 180) (length 5.08)
          (name "PL20B" (effects (font (size 1.27 1.27))))
          (number "H2" (effects (font (size 1.27 1.27))))
        )
        (pin bidirectional line (at 25.4 -67.31 180) (length 5.08)
          (name "PL14D" (effects (font (size 1.27 1.27))))
          (number "H3" (effects (font (size 1.27 1.27))))
        )
        (pin bidirectional line (at 25.4 -73.66 180) (length 5.08)
          (name "PL17B" (effects (font (size 1.27 1.27))))
          (number "H4" (effects (font (size 1.27 1.27))))
        )
        (pin bidirectional line (at 25.4 -71.12 180) (length 5.08)
          (name "PL17A" (effects (font (size 1.27 1.27))))
          (number "H5" (effects (font (size 1.27 1.27))))
        )
        (pin power_in line (at 7.62 5.08 270) (length 5.08)
          (name "VCCIO7_1" (effects (font (size 1.27 1.27))))
          (number "H6" (effects (font (size 1.27 1.27))))
        )
        (pin power_in line (at 5.08 5.08 270) (length 5.08)
          (name "VCCIO7_2" (effects (font (size 1.27 1.27))))
          (number "H7" (effects (font (size 1.27 1.27))))
        )
        (pin bidirectional line (at 25.4 -95.25 180) (length 5.08)
          (name "PL23A" (effects (font (size 1.27 1.27))))
          (number "J1" (effects (font (size 1.27 1.27))))
        )
        (pin bidirectional line (at 25.4 -97.79 180) (length 5.08)
          (name "PL23B" (effects (font (size 1.27 1.27))))
          (number "J2" (effects (font (size 1.27 1.27))))
        )
        (pin bidirectional line (at 25.4 -87.63 180) (length 5.08)
          (name "PL20C" (effects (font (size 1.27 1.27))))
          (number "J3" (effects (font (size 1.27 1.27))))
        )
        (pin bidirectional line (at 25.4 -76.2 180) (length 5.08)
          (name "PL17C" (effects (font (size 1.27 1.27))))
          (number "J4" (effects (font (size 1.27 1.27))))
        )
        (pin bidirectional line (at 25.4 -78.74 180) (length 5.08)
          (name "PL17D" (effects (font (size 1.27 1.27))))
          (number "J5" (effects (font (size 1.27 1.27))))
        )
        (pin bidirectional line (at 25.4 -100.33 180) (length 5.08)
          (name "PL23C" (effects (font (size 1.27 1.27))))
          (number "K1" (effects (font (size 1.27 1.27))))
        )
        (pin bidirectional line (at 25.4 -102.87 180) (length 5.08)
          (name "PL23D" (effects (font (size 1.27 1.27))))
          (number "K2" (effects (font (size 1.27 1.27))))
        )
        (pin bidirectional line (at 25.4 -90.17 180) (length 5.08)
          (name "PL20D" (effects (font (size 1.27 1.27))))
          (number "K3" (effects (font (size 1.27 1.27))))
        )
      )
      (symbol "ECP5-BGA256_1_0"
        (rectangle (start 5.08 0) (end 33.02 -71.12)
          (stroke (width 0.3048)) (fill (type background))
        )
      )
      (symbol "ECP5-BGA256_3_0"
        (rectangle (start 0 0) (end 21.59 -93.98)
          (stroke (width 0.3048)) (fill (type background))
        )
      )
      (symbol "ECP5-BGA256_5_0"
        (rectangle (start 0 0) (end 20.32 -91.44)
          (stroke (width 0.3048)) (fill (type background))
        )
      )
      (symbol "ECP5-BGA256_8_1"
        (rectangle (start 0 0) (end 21.59 -88.9)
          (stroke (width 0.3048)) (fill (type background))
        )
        (pin power_in line (at 5.08 5.08 270) (length 5.08)
          (name "VCCIO8" (effects (font (size 1.27 1.27))))
          (number "L6" (effects (font (size 1.27 1.27))))
        )
        (pin output line (at 26.67 -57.15 180) (length 5.08)
          (name "TDO" (effects (font (size 1.27 1.27))))
          (number "M10" (effects (font (size 1.27 1.27))))
        )
        (pin bidirectional line (at 26.67 -24.13 180) (length 5.08)
          (name "D2/PB9B" (effects (font (size 1.27 1.27))))
          (number "M7" (effects (font (size 1.27 1.27))))
        )
        (pin bidirectional line (at 26.67 -39.37 180) (length 5.08)
          (name "DOUT/CSON/PB15B" (effects (font (size 1.27 1.27))))
          (number "M8" (effects (font (size 1.27 1.27))))
        )
        (pin bidirectional line (at 26.67 -41.91 180) (length 5.08)
          (name "WRITEEN/PB18A" (effects (font (size 1.27 1.27))))
          (number "M9" (effects (font (size 1.27 1.27))))
        )
        (pin input line (at 26.67 -68.58 180) (length 5.08)
          (name "CFG_0" (effects (font (size 1.27 1.27))))
          (number "N10" (effects (font (size 1.27 1.27))))
        )
        (pin bidirectional line (at 26.67 -21.59 180) (length 5.08)
          (name "D3/PB9A" (effects (font (size 1.27 1.27))))
          (number "N7" (effects (font (size 1.27 1.27))))
        )
        (pin bidirectional line (at 26.67 -36.83 180) (length 5.08)
          (name "HOLDN/CSN/PB15A" (effects (font (size 1.27 1.27))))
          (number "N8" (effects (font (size 1.27 1.27))))
        )
        (pin bidirectional line (at 26.67 -63.5 180) (length 5.08)
          (name "MCLK/SCLK/CCLK" (effects (font (size 1.27 1.27))))
          (number "N9" (effects (font (size 1.27 1.27))))
        )
        (pin input line (at 26.67 -71.12 180) (length 5.08)
          (name "CFG_1" (effects (font (size 1.27 1.27))))
          (number "P10" (effects (font (size 1.27 1.27))))
        )
        (pin bidirectional line (at 26.67 -19.05 180) (length 5.08)
          (name "D4/COPI2/PB6B" (effects (font (size 1.27 1.27))))
          (number "P7" (effects (font (size 1.27 1.27))))
        )
        (pin bidirectional line (at 26.67 -34.29 180) (length 5.08)
          (name "CS1N/PB13B" (effects (font (size 1.27 1.27))))
          (number "P8" (effects (font (size 1.27 1.27))))
        )
        (pin bidirectional line (at 26.67 -80.01 180) (length 5.08)
          (name "DONE" (effects (font (size 1.27 1.27))))
          (number "P9" (effects (font (size 1.27 1.27))))
        )
        (pin input line (at 26.67 -73.66 180) (length 5.08)
          (name "CFG_2" (effects (font (size 1.27 1.27))))
          (number "R10" (effects (font (size 1.27 1.27))))
        )
        (pin input line (at 26.67 -54.61 180) (length 5.08)
          (name "TDI" (effects (font (size 1.27 1.27))))
          (number "R11" (effects (font (size 1.27 1.27))))
        )
        (pin bidirectional line (at 26.67 -13.97 180) (length 5.08)
          (name "D6/PB4B" (effects (font (size 1.27 1.27))))
          (number "R6" (effects (font (size 1.27 1.27))))
        )
        (pin bidirectional line (at 26.67 -16.51 180) (length 5.08)
          (name "D5/CIPO2/PB6A" (effects (font (size 1.27 1.27))))
          (number "R7" (effects (font (size 1.27 1.27))))
        )
        (pin bidirectional line (at 26.67 -31.75 180) (length 5.08)
          (name "SN/CSN/PB13A" (effects (font (size 1.27 1.27))))
          (number "R8" (effects (font (size 1.27 1.27))))
        )
        (pin bidirectional line (at 26.67 -85.09 180) (length 5.08)
          (name "PROGRAMN" (effects (font (size 1.27 1.27))))
          (number "R9" (effects (font (size 1.27 1.27))))
        )
        (pin input line (at 26.67 -52.07 180) (length 5.08)
          (name "TCK" (effects (font (size 1.27 1.27))))
          (number "T10" (effects (font (size 1.27 1.27))))
        )
        (pin input line (at 26.67 -49.53 180) (length 5.08)
          (name "TMS" (effects (font (size 1.27 1.27))))
          (number "T11" (effects (font (size 1.27 1.27))))
        )
        (pin bidirectional line (at 26.67 -11.43 180) (length 5.08)
          (name "D7/PB4A" (effects (font (size 1.27 1.27))))
          (number "T6" (effects (font (size 1.27 1.27))))
        )
        (pin bidirectional line (at 26.67 -26.67 180) (length 5.08)
          (name "D1/CIPO/PB11A" (effects (font (size 1.27 1.27))))
          (number "T7" (effects (font (size 1.27 1.27))))
        )
        (pin bidirectional line (at 26.67 -29.21 180) (length 5.08)
          (name "D0/COPI/PB11B" (effects (font (size 1.27 1.27))))
          (number "T8" (effects (font (size 1.27 1.27))))
        )
        (pin bidirectional line (at 26.67 -82.55 180) (length 5.08)
          (name "INITN" (effects (font (size 1.27 1.27))))
          (number "T9" (effects (font (size 1.27 1.27))))
        )
      )
    )
    (symbol "mini_mipi:S27KL0641"
      (property "Reference" "U" (id 0) (at 0 20.32 0)
        (effects (font (size 1.27 1.27)))
      )
      (property "Value" "S27KL0641" (id 1) (at 0 -20.32 0)
        (effects (font (size 1.27 1.27)))
      )
      (property "Footprint" "pkl_housings_bga:BGA-24_5x5_6.0x8.0mm" (id 2) (at 15.24 -22.86 0)
        (effects (font (size 1.27 1.27)) hide)
      )
      (property "Datasheet" "http://www.cypress.com/file/183506/download" (id 3) (at 0 -22.86 0)
        (effects (font (size 1.27 1.27)) hide)
      )
      (property "Source" "ANY" (id 4) (at 0 0 0)
        (effects (font (size 1.27 1.27)) hide)
      )
      (property "ki_keywords" "HyperRAM, DRAM" (id 5) (at 0 0 0)
        (effects (font (size 1.27 1.27)) hide)
      )
      (property "ki_description" "Cypress HyperRAM Self-Refresh DRAM; 3.0 V/1.8 V, 64 Mbit (8 Mbyte)/128 Mbit (16 Mbyte)" (id 6) (at 0 0 0)
        (effects (font (size 1.27 1.27)) hide)
      )
      (symbol "S27KL0641_0_1"
        (rectangle (start -10.16 19.05) (end 10.16 -19.05)
          (stroke (width 0)) (fill (type none))
        )
      )
      (symbol "S27KL0641_1_1"
        (pin passive line (at 15.24 -12.7 180) (length 5.08)
          (name "RFU" (effects (font (size 1.27 1.27))))
          (number "A2" (effects (font (size 1.27 1.27))))
        )
        (pin input line (at -15.24 2.54 0) (length 5.08)
          (name "~CS" (effects (font (size 1.27 1.27))))
          (number "A3" (effects (font (size 1.27 1.27))))
        )
        (pin input line (at -15.24 7.62 0) (length 5.08)
          (name "~RESET" (effects (font (size 1.27 1.27))))
          (number "A4" (effects (font (size 1.27 1.27))))
        )
        (pin passive line (at 15.24 -15.24 180) (length 5.08)
          (name "RFU" (effects (font (size 1.27 1.27))))
          (number "A5" (effects (font (size 1.27 1.27))))
        )
        (pin input line (at -15.24 -2.54 0) (length 5.08)
          (name "~CK" (effects (font (size 1.27 1.27))))
          (number "B1" (effects (font (size 1.27 1.27))))
        )
        (pin input line (at -15.24 0 0) (length 5.08)
          (name "CK" (effects (font (size 1.27 1.27))))
          (number "B2" (effects (font (size 1.27 1.27))))
        )
        (pin power_in line (at -15.24 -12.7 0) (length 5.08)
          (name "VSS" (effects (font (size 1.27 1.27))))
          (number "B3" (effects (font (size 1.27 1.27))))
        )
        (pin power_in line (at -15.24 17.78 0) (length 5.08)
          (name "VCC" (effects (font (size 1.27 1.27))))
          (number "B4" (effects (font (size 1.27 1.27))))
        )
        (pin input line (at -15.24 -5.08 0) (length 5.08)
          (name "RFU/PSC" (effects (font (size 1.27 1.27))))
          (number "B5" (effects (font (size 1.27 1.27))))
        )
        (pin power_in line (at -15.24 -15.24 0) (length 5.08)
          (name "VSSQ" (effects (font (size 1.27 1.27))))
          (number "C1" (effects (font (size 1.27 1.27))))
        )
        (pin passive line (at 15.24 -17.78 180) (length 5.08)
          (name "RFU" (effects (font (size 1.27 1.27))))
          (number "C2" (effects (font (size 1.27 1.27))))
        )
        (pin bidirectional line (at 15.24 -7.62 180) (length 5.08)
          (name "RWDS" (effects (font (size 1.27 1.27))))
          (number "C3" (effects (font (size 1.27 1.27))))
        )
        (pin bidirectional line (at 15.24 0 180) (length 5.08)
          (name "DQ2" (effects (font (size 1.27 1.27))))
          (number "C4" (effects (font (size 1.27 1.27))))
        )
        (pin input line (at -15.24 -7.62 0) (length 5.08)
          (name "RFU/~PSC" (effects (font (size 1.27 1.27))))
          (number "C5" (effects (font (size 1.27 1.27))))
        )
        (pin power_in line (at -15.24 15.24 0) (length 5.08)
          (name "VCCQ" (effects (font (size 1.27 1.27))))
          (number "D1" (effects (font (size 1.27 1.27))))
        )
        (pin bidirectional line (at 15.24 -2.54 180) (length 5.08)
          (name "DQ1" (effects (font (size 1.27 1.27))))
          (number "D2" (effects (font (size 1.27 1.27))))
        )
        (pin bidirectional line (at 15.24 -5.08 180) (length 5.08)
          (name "DQ0" (effects (font (size 1.27 1.27))))
          (number "D3" (effects (font (size 1.27 1.27))))
        )
        (pin bidirectional line (at 15.24 2.54 180) (length 5.08)
          (name "DQ3" (effects (font (size 1.27 1.27))))
          (number "D4" (effects (font (size 1.27 1.27))))
        )
        (pin bidirectional line (at 15.24 5.08 180) (length 5.08)
          (name "DQ4" (effects (font (size 1.27 1.27))))
          (number "D5" (effects (font (size 1.27 1.27))))
        )
        (pin bidirectional line (at 15.24 12.7 180) (length 5.08)
          (name "DQ7" (effects (font (size 1.27 1.27))))
          (number "E1" (effects (font (size 1.27 1.27))))
        )
        (pin bidirectional line (at 15.24 10.16 180) (length 5.08)
          (name "DQ6" (effects (font (size 1.27 1.27))))
          (number "E2" (effects (font (size 1.27 1.27))))
        )
        (pin bidirectional line (at 15.24 7.62 180) (length 5.08)
          (name "DQ5" (effects (font (size 1.27 1.27))))
          (number "E3" (effects (font (size 1.27 1.27))))
        )
        (pin power_in line (at -15.24 12.7 0) (length 5.08)
          (name "VCCQ" (effects (font (size 1.27 1.27))))
          (number "E4" (effects (font (size 1.27 1.27))))
        )
        (pin power_in line (at -15.24 -17.78 0) (length 5.08)
          (name "VSSQ" (effects (font (size 1.27 1.27))))
          (number "E5" (effects (font (size 1.27 1.27))))
        )
      )
    )
    (symbol "power:+1V8" (power) (pin_names (offset 0))
      (property "Reference" "#PWR" (id 0) (at 0 -3.81 0)
        (effects (font (size 1.27 1.27)) hide)
      )
      (property "Value" "+1V8" (id 1) (at 0 3.556 0)
        (effects (font (size 1.27 1.27)))
      )
      (property "Footprint" "" (id 2) (at 0 0 0)
        (effects (font (size 1.27 1.27)) hide)
      )
      (property "Datasheet" "" (id 3) (at 0 0 0)
        (effects (font (size 1.27 1.27)) hide)
      )
      (property "ki_keywords" "power-flag" (id 4) (at 0 0 0)
        (effects (font (size 1.27 1.27)) hide)
      )
      (property "ki_description" "Power symbol creates a global label with name \"+1V8\"" (id 5) (at 0 0 0)
        (effects (font (size 1.27 1.27)) hide)
      )
      (symbol "+1V8_0_1"
        (polyline
          (pts (xy -0.762 1.27) (xy 0 2.54))
          (stroke (width 0)) (fill (type none))
        )
        (polyline
          (pts (xy 0 0) (xy 0 2.54))
          (stroke (width 0)) (fill (type none))
        )
        (polyline
          (pts (xy 0 2.54) (xy 0.762 1.27))
          (stroke (width 0)) (fill (type none))
        )
      )
      (symbol "+1V8_1_1"
        (pin power_in line (at 0 0 90) (length 0) hide
          (name "+1V8" (effects (font (size 1.27 1.27))))
          (number "1" (effects (font (size 1.27 1.27))))
        )
      )
    )
    (symbol "power:GND" (power) (pin_names (offset 0))
      (property "Reference" "#PWR" (id 0) (at 0 -6.35 0)
        (effects (font (size 1.27 1.27)) hide)
      )
      (property "Value" "GND" (id 1) (at 0 -3.81 0)
        (effects (font (size 1.27 1.27)))
      )
      (property "Footprint" "" (id 2) (at 0 0 0)
        (effects (font (size 1.27 1.27)) hide)
      )
      (property "Datasheet" "" (id 3) (at 0 0 0)
        (effects (font (size 1.27 1.27)) hide)
      )
      (property "ki_keywords" "power-flag" (id 4) (at 0 0 0)
        (effects (font (size 1.27 1.27)) hide)
      )
      (property "ki_description" "Power symbol creates a global label with name \"GND\" , ground" (id 5) (at 0 0 0)
        (effects (font (size 1.27 1.27)) hide)
      )
      (symbol "GND_0_1"
        (polyline
          (pts (xy 0 0) (xy 0 -1.27) (xy 1.27 -1.27) (xy 0 -2.54)
               (xy -1.27 -1.27) (xy 0 -1.27)
          )
          (stroke (width 0)) (fill (type none))
        )
      )
      (symbol "GND_1_1"
        (pin power_in line (at 0 0 270) (length 0) hide
          (name "GND" (effects (font (size 1.27 1.27))))
          (number "1" (effects (font (size 1.27 1.27))))
        )
      )
    )
  )

  (bus_alias "HYPERRAM" (members "DQ[0..7]" "RWDS" "~CS" "CK_N" "CK_P" "PSC_N" "PSC_P" "~RESET"))
  (junction (at 105.41 90.17) (diameter 0) (color 0 0 0 0))
  (junction (at 105.41 92.71) (diameter 0) (color 0 0 0 0))
  (junction (at 106.68 57.15) (diameter 0) (color 0 0 0 0))
  (junction (at 106.68 59.69) (diameter 0) (color 0 0 0 0))
  (junction (at 220.345 36.83) (diameter 0) (color 0 0 0 0))
  (junction (at 151.765 52.705) (diameter 0) (color 0 0 0 0))

  (no_connect (at 139.065 92.71))
  (no_connect (at 139.065 90.17))
  (no_connect (at 139.065 87.63))

  (bus_entry (at 97.155 69.85) (size 2.54 -2.54)
    (stroke (width 0.1524) (type solid) (color 0 0 0 0))
  )
  (bus_entry (at 97.155 74.93) (size 2.54 -2.54)
    (stroke (width 0.1524) (type solid) (color 0 0 0 0))
  )
  (bus_entry (at 97.155 77.47) (size 2.54 -2.54)
    (stroke (width 0.1524) (type solid) (color 0 0 0 0))
  )
  (bus_entry (at 97.155 80.01) (size 2.54 -2.54)
    (stroke (width 0.1524) (type solid) (color 0 0 0 0))
  )
  (bus_entry (at 97.155 82.55) (size 2.54 -2.54)
    (stroke (width 0.1524) (type solid) (color 0 0 0 0))
  )
  (bus_entry (at 97.155 85.09) (size 2.54 -2.54)
    (stroke (width 0.1524) (type solid) (color 0 0 0 0))
  )
  (bus_entry (at 149.225 62.23) (size 2.54 -2.54)
    (stroke (width 0.1524) (type solid) (color 0 0 0 0))
  )
  (bus_entry (at 149.225 64.77) (size 2.54 -2.54)
    (stroke (width 0.1524) (type solid) (color 0 0 0 0))
  )
  (bus_entry (at 149.225 67.31) (size 2.54 -2.54)
    (stroke (width 0.1524) (type solid) (color 0 0 0 0))
  )
  (bus_entry (at 149.225 69.85) (size 2.54 -2.54)
    (stroke (width 0.1524) (type solid) (color 0 0 0 0))
  )
  (bus_entry (at 149.225 72.39) (size 2.54 -2.54)
    (stroke (width 0.1524) (type solid) (color 0 0 0 0))
  )
  (bus_entry (at 149.225 74.93) (size 2.54 -2.54)
    (stroke (width 0.1524) (type solid) (color 0 0 0 0))
  )
  (bus_entry (at 149.225 77.47) (size 2.54 -2.54)
    (stroke (width 0.1524) (type solid) (color 0 0 0 0))
  )
  (bus_entry (at 149.225 80.01) (size 2.54 -2.54)
    (stroke (width 0.1524) (type solid) (color 0 0 0 0))
  )
  (bus_entry (at 149.225 82.55) (size 2.54 -2.54)
    (stroke (width 0.1524) (type solid) (color 0 0 0 0))
  )
  (bus_entry (at 187.325 78.74) (size 2.54 2.54)
    (stroke (width 0.1524) (type solid) (color 0 0 0 0))
  )
  (bus_entry (at 187.325 81.28) (size 2.54 2.54)
    (stroke (width 0.1524) (type solid) (color 0 0 0 0))
  )
  (bus_entry (at 187.325 83.82) (size 2.54 2.54)
    (stroke (width 0.1524) (type solid) (color 0 0 0 0))
  )
  (bus_entry (at 187.325 87.63) (size 2.54 2.54)
    (stroke (width 0.1524) (type solid) (color 0 0 0 0))
  )
  (bus_entry (at 187.325 90.17) (size 2.54 2.54)
    (stroke (width 0.1524) (type solid) (color 0 0 0 0))
  )
  (bus_entry (at 187.325 92.71) (size 2.54 2.54)
    (stroke (width 0.1524) (type solid) (color 0 0 0 0))
  )
  (bus_entry (at 187.325 95.25) (size 2.54 2.54)
    (stroke (width 0.1524) (type solid) (color 0 0 0 0))
  )
  (bus_entry (at 187.325 102.87) (size 2.54 2.54)
    (stroke (width 0.1524) (type solid) (color 0 0 0 0))
  )
  (bus_entry (at 187.325 105.41) (size 2.54 2.54)
    (stroke (width 0.1524) (type solid) (color 0 0 0 0))
  )
  (bus_entry (at 187.325 107.95) (size 2.54 2.54)
    (stroke (width 0.1524) (type solid) (color 0 0 0 0))
  )
  (bus_entry (at 187.325 127) (size 2.54 2.54)
    (stroke (width 0.1524) (type solid) (color 0 0 0 0))
  )
  (bus_entry (at 189.865 55.88) (size -2.54 -2.54)
    (stroke (width 0.1524) (type solid) (color 0 0 0 0))
  )
  (bus_entry (at 189.865 58.42) (size -2.54 -2.54)
    (stroke (width 0.1524) (type solid) (color 0 0 0 0))
  )
  (bus_entry (at 189.865 60.96) (size -2.54 -2.54)
    (stroke (width 0.1524) (type solid) (color 0 0 0 0))
  )
  (bus_entry (at 189.865 63.5) (size -2.54 -2.54)
    (stroke (width 0.1524) (type solid) (color 0 0 0 0))
  )
  (bus_entry (at 189.865 78.74) (size -2.54 -2.54)
    (stroke (width 0.1524) (type solid) (color 0 0 0 0))
  )

  (wire (pts (xy 99.695 67.31) (xy 108.585 67.31))
    (stroke (width 0) (type solid) (color 0 0 0 0))
  )
  (wire (pts (xy 99.695 72.39) (xy 108.585 72.39))
    (stroke (width 0) (type solid) (color 0 0 0 0))
  )
  (wire (pts (xy 99.695 74.93) (xy 108.585 74.93))
    (stroke (width 0) (type solid) (color 0 0 0 0))
  )
  (wire (pts (xy 99.695 77.47) (xy 108.585 77.47))
    (stroke (width 0) (type solid) (color 0 0 0 0))
  )
  (wire (pts (xy 99.695 80.01) (xy 108.585 80.01))
    (stroke (width 0) (type solid) (color 0 0 0 0))
  )
  (wire (pts (xy 99.695 82.55) (xy 108.585 82.55))
    (stroke (width 0) (type solid) (color 0 0 0 0))
  )
  (wire (pts (xy 105.41 87.63) (xy 108.585 87.63))
    (stroke (width 0) (type solid) (color 0 0 0 0))
  )
  (wire (pts (xy 105.41 90.17) (xy 105.41 87.63))
    (stroke (width 0) (type solid) (color 0 0 0 0))
  )
  (wire (pts (xy 105.41 90.17) (xy 108.585 90.17))
    (stroke (width 0) (type solid) (color 0 0 0 0))
  )
  (wire (pts (xy 105.41 92.71) (xy 105.41 90.17))
    (stroke (width 0) (type solid) (color 0 0 0 0))
  )
  (wire (pts (xy 105.41 92.71) (xy 108.585 92.71))
    (stroke (width 0) (type solid) (color 0 0 0 0))
  )
  (wire (pts (xy 106.68 57.15) (xy 106.68 59.69))
    (stroke (width 0) (type solid) (color 0 0 0 0))
  )
  (wire (pts (xy 106.68 57.15) (xy 108.585 57.15))
    (stroke (width 0) (type solid) (color 0 0 0 0))
  )
  (wire (pts (xy 106.68 59.69) (xy 106.68 62.23))
    (stroke (width 0) (type solid) (color 0 0 0 0))
  )
  (wire (pts (xy 106.68 59.69) (xy 108.585 59.69))
    (stroke (width 0) (type solid) (color 0 0 0 0))
  )
  (wire (pts (xy 106.68 62.23) (xy 108.585 62.23))
    (stroke (width 0) (type solid) (color 0 0 0 0))
  )
  (wire (pts (xy 139.065 62.23) (xy 149.225 62.23))
    (stroke (width 0) (type solid) (color 0 0 0 0))
  )
  (wire (pts (xy 139.065 64.77) (xy 149.225 64.77))
    (stroke (width 0) (type solid) (color 0 0 0 0))
  )
  (wire (pts (xy 139.065 67.31) (xy 149.225 67.31))
    (stroke (width 0) (type solid) (color 0 0 0 0))
  )
  (wire (pts (xy 139.065 69.85) (xy 149.225 69.85))
    (stroke (width 0) (type solid) (color 0 0 0 0))
  )
  (wire (pts (xy 139.065 72.39) (xy 149.225 72.39))
    (stroke (width 0) (type solid) (color 0 0 0 0))
  )
  (wire (pts (xy 139.065 74.93) (xy 149.225 74.93))
    (stroke (width 0) (type solid) (color 0 0 0 0))
  )
  (wire (pts (xy 139.065 77.47) (xy 149.225 77.47))
    (stroke (width 0) (type solid) (color 0 0 0 0))
  )
  (wire (pts (xy 139.065 80.01) (xy 149.225 80.01))
    (stroke (width 0) (type solid) (color 0 0 0 0))
  )
  (wire (pts (xy 139.065 82.55) (xy 149.225 82.55))
    (stroke (width 0) (type solid) (color 0 0 0 0))
  )
  (wire (pts (xy 189.865 81.28) (xy 200.025 81.28))
    (stroke (width 0) (type solid) (color 0 0 0 0))
  )
  (wire (pts (xy 189.865 83.82) (xy 200.025 83.82))
    (stroke (width 0) (type solid) (color 0 0 0 0))
  )
  (wire (pts (xy 189.865 86.36) (xy 200.025 86.36))
    (stroke (width 0) (type solid) (color 0 0 0 0))
  )
  (wire (pts (xy 189.865 90.17) (xy 200.025 90.17))
    (stroke (width 0) (type solid) (color 0 0 0 0))
  )
  (wire (pts (xy 189.865 92.71) (xy 200.025 92.71))
    (stroke (width 0) (type solid) (color 0 0 0 0))
  )
  (wire (pts (xy 189.865 95.25) (xy 200.025 95.25))
    (stroke (width 0) (type solid) (color 0 0 0 0))
  )
  (wire (pts (xy 189.865 97.79) (xy 200.025 97.79))
    (stroke (width 0) (type solid) (color 0 0 0 0))
  )
  (wire (pts (xy 189.865 105.41) (xy 200.025 105.41))
    (stroke (width 0) (type solid) (color 0 0 0 0))
  )
  (wire (pts (xy 189.865 107.95) (xy 200.025 107.95))
    (stroke (width 0) (type solid) (color 0 0 0 0))
  )
  (wire (pts (xy 189.865 110.49) (xy 200.025 110.49))
    (stroke (width 0) (type solid) (color 0 0 0 0))
  )
  (wire (pts (xy 189.865 129.54) (xy 200.025 129.54))
    (stroke (width 0) (type solid) (color 0 0 0 0))
  )
  (wire (pts (xy 200.025 55.88) (xy 189.865 55.88))
    (stroke (width 0) (type solid) (color 0 0 0 0))
  )
  (wire (pts (xy 200.025 58.42) (xy 189.865 58.42))
    (stroke (width 0) (type solid) (color 0 0 0 0))
  )
  (wire (pts (xy 200.025 60.96) (xy 189.865 60.96))
    (stroke (width 0) (type solid) (color 0 0 0 0))
  )
  (wire (pts (xy 200.025 63.5) (xy 189.865 63.5))
    (stroke (width 0) (type solid) (color 0 0 0 0))
  )
  (wire (pts (xy 200.025 78.74) (xy 189.865 78.74))
    (stroke (width 0) (type solid) (color 0 0 0 0))
  )
  (wire (pts (xy 217.805 36.83) (xy 220.345 36.83))
    (stroke (width 0) (type solid) (color 0 0 0 0))
  )
  (bus (pts (xy 97.155 41.275) (xy 97.155 74.93))
    (stroke (width 0) (type solid) (color 0 0 0 0))
  )
  (bus (pts (xy 97.155 74.93) (xy 97.155 80.01))
    (stroke (width 0) (type solid) (color 0 0 0 0))
  )
  (bus (pts (xy 97.155 80.01) (xy 97.155 85.09))
    (stroke (width 0) (type solid) (color 0 0 0 0))
  )
  (bus (pts (xy 151.765 41.275) (xy 97.155 41.275))
    (stroke (width 0) (type solid) (color 0 0 0 0))
  )
  (bus (pts (xy 151.765 52.705) (xy 151.765 41.275))
    (stroke (width 0) (type solid) (color 0 0 0 0))
  )
  (bus (pts (xy 151.765 52.705) (xy 151.765 62.23))
    (stroke (width 0) (type solid) (color 0 0 0 0))
  )
  (bus (pts (xy 151.765 52.705) (xy 187.325 52.705))
    (stroke (width 0) (type solid) (color 0 0 0 0))
  )
  (bus (pts (xy 151.765 62.23) (xy 151.765 67.31))
    (stroke (width 0) (type solid) (color 0 0 0 0))
  )
  (bus (pts (xy 151.765 67.31) (xy 151.765 72.39))
    (stroke (width 0) (type solid) (color 0 0 0 0))
  )
  (bus (pts (xy 151.765 72.39) (xy 151.765 77.47))
    (stroke (width 0) (type solid) (color 0 0 0 0))
  )
  (bus (pts (xy 151.765 77.47) (xy 151.765 80.01))
    (stroke (width 0) (type solid) (color 0 0 0 0))
  )
  (bus (pts (xy 187.325 52.705) (xy 187.325 55.88))
    (stroke (width 0) (type solid) (color 0 0 0 0))
  )
  (bus (pts (xy 187.325 55.88) (xy 187.325 60.96))
    (stroke (width 0) (type solid) (color 0 0 0 0))
  )
  (bus (pts (xy 187.325 60.96) (xy 187.325 78.74))
    (stroke (width 0) (type solid) (color 0 0 0 0))
  )
  (bus (pts (xy 187.325 78.74) (xy 187.325 81.28))
    (stroke (width 0) (type solid) (color 0 0 0 0))
  )
  (bus (pts (xy 187.325 81.28) (xy 187.325 87.63))
    (stroke (width 0) (type solid) (color 0 0 0 0))
  )
  (bus (pts (xy 187.325 87.63) (xy 187.325 92.71))
    (stroke (width 0) (type solid) (color 0 0 0 0))
  )
  (bus (pts (xy 187.325 92.71) (xy 187.325 102.87))
    (stroke (width 0) (type solid) (color 0 0 0 0))
  )
  (bus (pts (xy 187.325 102.87) (xy 187.325 107.95))
    (stroke (width 0) (type solid) (color 0 0 0 0))
  )
  (bus (pts (xy 187.325 107.95) (xy 187.325 127))
    (stroke (width 0) (type solid) (color 0 0 0 0))
  )

  (label "~CS" (at 102.87 72.39 0)
    (effects (font (size 1.27 1.27)) (justify left bottom))
  )
  (label "CK_P" (at 102.87 74.93 0)
    (effects (font (size 1.27 1.27)) (justify left bottom))
  )
  (label "CK_N" (at 102.87 77.47 0)
    (effects (font (size 1.27 1.27)) (justify left bottom))
  )
  (label "PSC_P" (at 102.87 80.01 0)
    (effects (font (size 1.27 1.27)) (justify left bottom))
  )
  (label "PSC_N" (at 102.87 82.55 0)
    (effects (font (size 1.27 1.27)) (justify left bottom))
  )
  (label "~RESET" (at 108.585 67.31 180)
    (effects (font (size 1.27 1.27)) (justify right bottom))
  )
  (label "DQ7" (at 139.065 62.23 0)
    (effects (font (size 1.27 1.27)) (justify left bottom))
  )
  (label "DQ6" (at 139.065 64.77 0)
    (effects (font (size 1.27 1.27)) (justify left bottom))
  )
  (label "DQ5" (at 139.065 67.31 0)
    (effects (font (size 1.27 1.27)) (justify left bottom))
  )
  (label "DQ4" (at 139.065 69.85 0)
    (effects (font (size 1.27 1.27)) (justify left bottom))
  )
  (label "DQ3" (at 139.065 72.39 0)
    (effects (font (size 1.27 1.27)) (justify left bottom))
  )
  (label "DQ2" (at 139.065 74.93 0)
    (effects (font (size 1.27 1.27)) (justify left bottom))
  )
  (label "DQ1" (at 139.065 77.47 0)
    (effects (font (size 1.27 1.27)) (justify left bottom))
  )
  (label "DQ0" (at 139.065 80.01 0)
    (effects (font (size 1.27 1.27)) (justify left bottom))
  )
  (label "RWDS" (at 139.065 82.55 0)
    (effects (font (size 1.27 1.27)) (justify left bottom))
  )
  (label "{HYPERRAM}" (at 153.035 52.705 0)
    (effects (font (size 1.27 1.27)) (justify left bottom))
  )
  (label "DQ5" (at 200.025 55.88 180)
    (effects (font (size 1.27 1.27)) (justify right bottom))
  )
  (label "DQ6" (at 200.025 58.42 180)
    (effects (font (size 1.27 1.27)) (justify right bottom))
  )
  (label "DQ0" (at 200.025 60.96 180)
    (effects (font (size 1.27 1.27)) (justify right bottom))
  )
  (label "DQ1" (at 200.025 63.5 180)
    (effects (font (size 1.27 1.27)) (justify right bottom))
  )
  (label "PSC_P" (at 200.025 78.74 180)
    (effects (font (size 1.27 1.27)) (justify right bottom))
  )
  (label "PSC_N" (at 200.025 81.28 180)
    (effects (font (size 1.27 1.27)) (justify right bottom))
  )
  (label "DQ7" (at 200.025 83.82 180)
    (effects (font (size 1.27 1.27)) (justify right bottom))
  )
  (label "DQ3" (at 200.025 86.36 180)
    (effects (font (size 1.27 1.27)) (justify right bottom))
  )
  (label "CK_P" (at 200.025 90.17 180)
    (effects (font (size 1.27 1.27)) (justify right bottom))
  )
  (label "CK_N" (at 200.025 92.71 180)
    (effects (font (size 1.27 1.27)) (justify right bottom))
  )
  (label "DQ2" (at 200.025 97.79 180)
    (effects (font (size 1.27 1.27)) (justify right bottom))
  )
  (label "DQ4" (at 200.025 105.41 180)
    (effects (font (size 1.27 1.27)) (justify right bottom))
  )
  (label "RWDS" (at 200.025 107.95 180)
    (effects (font (size 1.27 1.27)) (justify right bottom))
  )
  (label "~CS" (at 200.025 110.49 180)
    (effects (font (size 1.27 1.27)) (justify right bottom))
  )
  (label "~RESET" (at 200.025 129.54 180)
    (effects (font (size 1.27 1.27)) (justify right bottom))
  )

  (symbol (lib_id "power:+1V8") (at 106.68 57.15 0) (unit 1)
    (in_bom yes) (on_board yes)
    (uuid "84d420bb-48a2-411d-b3b8-48e888cd63a5")
    (property "Reference" "#PWR0140" (id 0) (at 106.68 60.96 0)
      (effects (font (size 1.27 1.27)) hide)
    )
    (property "Value" "+1V8" (id 1) (at 107.0483 52.8256 0))
    (property "Footprint" "" (id 2) (at 106.68 57.15 0)
      (effects (font (size 1.27 1.27)) hide)
    )
    (property "Datasheet" "" (id 3) (at 106.68 57.15 0)
      (effects (font (size 1.27 1.27)) hide)
    )
  )

  (symbol (lib_id "power:+1V8") (at 220.345 36.83 0) (unit 1)
    (in_bom yes) (on_board yes)
    (uuid "97516e82-e740-400b-b594-e638cbafb297")
    (property "Reference" "#PWR0138" (id 0) (at 220.345 40.64 0)
      (effects (font (size 1.27 1.27)) hide)
    )
    (property "Value" "+1V8" (id 1) (at 220.7133 32.5056 0))
    (property "Footprint" "" (id 2) (at 220.345 36.83 0)
      (effects (font (size 1.27 1.27)) hide)
    )
    (property "Datasheet" "" (id 3) (at 220.345 36.83 0)
      (effects (font (size 1.27 1.27)) hide)
    )
  )

  (symbol (lib_id "power:GND") (at 105.41 92.71 0) (unit 1)
    (in_bom yes) (on_board yes)
    (uuid "0df01b17-f4a4-4eed-9f22-fdc275c695c7")
    (property "Reference" "#PWR0139" (id 0) (at 105.41 99.06 0)
      (effects (font (size 1.27 1.27)) hide)
    )
    (property "Value" "GND" (id 1) (at 105.5243 97.0344 0))
    (property "Footprint" "" (id 2) (at 105.41 92.71 0)
      (effects (font (size 1.27 1.27)) hide)
    )
    (property "Datasheet" "" (id 3) (at 105.41 92.71 0)
      (effects (font (size 1.27 1.27)) hide)
    )
  )

  (symbol (lib_id "mini_mipi:S27KL0641") (at 123.825 74.93 0) (unit 1)
    (in_bom yes) (on_board yes)
    (uuid "3180cf62-1d12-41fb-804f-48e3e5e52812")
    (property "Reference" "U6" (id 0) (at 123.825 51.5682 0))
    (property "Value" "S27KL0641" (id 1) (at 123.825 53.8669 0))
    (property "Footprint" "mini-mipi:BGA-24_5x5_6.0x8.0mm" (id 2) (at 139.065 97.79 0)
      (effects (font (size 1.27 1.27)) hide)
    )
    (property "Datasheet" "http://www.cypress.com/file/183506/download" (id 3) (at 123.825 97.79 0)
      (effects (font (size 1.27 1.27)) hide)
    )
    (property "Source" "ANY" (id 4) (at 123.825 74.93 0)
      (effects (font (size 1.27 1.27)) hide)
    )
  )

  (symbol (lib_id "mini_mipi:ECP5-BGA256") (at 224.155 41.91 0) (mirror y) (unit 6)
    (in_bom yes) (on_board yes)
    (uuid "4e1c488f-0d09-46a2-b90f-b152537cde87")
    (property "Reference" "IC1" (id 0) (at 224.9425 94.5619 0)
      (effects (font (size 1.27 1.27)) (justify right))
    )
    (property "Value" "ECP5-BGA256" (id 1) (at 224.9425 96.8606 0)
      (effects (font (size 1.27 1.27)) (justify right))
    )
    (property "Footprint" "mini-mipi:BGA256C80P16X16_1400X1400X170" (id 2) (at 305.435 -45.72 0)
      (effects (font (size 1.27 1.27)) (justify left) hide)
    )
    (property "Datasheet" "" (id 3) (at 316.865 -69.85 0)
      (effects (font (size 1.27 1.27)) (justify left) hide)
    )
    (property "Description" "FPGA - Field Programmable Gate Array ECP5; 12k LUTs; 1.1V" (id 4) (at 316.865 -67.31 0)
      (effects (font (size 1.27 1.27)) (justify left) hide)
    )
    (property "Height" "1.7" (id 5) (at 316.865 -76.2 0)
      (effects (font (size 1.27 1.27)) (justify left) hide)
    )
    (property "Manufacturer_Name" "Lattice" (id 6) (at 315.595 -91.44 0)
      (effects (font (size 1.27 1.27)) (justify left) hide)
    )
    (property "Manufacturer_Part_Number" "LFE5U-12F-6BG256C" (id 7) (at 315.595 -88.9 0)
      (effects (font (size 1.27 1.27)) (justify left) hide)
    )
    (property "Mouser Part Number" "842-LFE5U12F6BG256C" (id 8) (at 299.085 -55.88 0)
      (effects (font (size 1.27 1.27)) (justify left) hide)
    )
    (property "Mouser Price/Stock" "https://www.mouser.com/Search/Refine.aspx?Keyword=842-LFE5U12F6BG256C" (id 9) (at 307.975 -52.07 0)
      (effects (font (size 1.27 1.27)) (justify left) hide)
    )
  )
)
